data/ALL0008/F0008CH2.CSV

Record Length,2.500000e+03,,  -0.090000000000,   4.16000,
Sample Interval,4.000000e-05,,  -0.089960000000,   4.16000,
Trigger Point,2.250000000000e+03,,  -0.089920000000,   4.16000,
,,,  -0.089880000000,   4.16000,
,,,  -0.089840000000,   4.16000,
,,,  -0.089800000000,   4.12000,
Source,CH2,,  -0.089760000000,   4.16000,
Vertical Units,V,,  -0.089720000000,   4.16000,
Vertical Scale,1.000000e+00,,  -0.089680000000,   4.16000,
Vertical Offset,-2.800000e+00,,  -0.089640000000,   4.16000,
Horizontal Units,s,,  -0.089600000000,   4.16000,
Horizontal Scale,1.000000e-02,,  -0.089560000000,   4.16000,
Pt Fmt,Y,,  -0.089520000000,   4.16000,
Yzero,0.000000e+00,,  -0.089480000000,   4.16000,
Probe Atten,1.000000e+00,,  -0.089440000000,   4.16000,
Model Number,TDS2012C,,  -0.089400000000,   4.16000,
Serial Number,C010188,,  -0.089360000000,   4.16000,
Firmware Version,FV:v24.08,,  -0.089320000000,   4.16000,
,,,-00.089280000000,   4.16000,
,,,-00.089240000000,   4.16000,
,,,-00.089200000000,   4.16000,
,,,-00.089160000000,   4.16000,
,,,-00.089120000000,   4.16000,
,,,-00.089080000000,   4.16000,
,,,-00.089040000000,   4.16000,
,,,-00.089000000000,   4.16000,
,,,-00.088960000000,   4.16000,
,,,-00.088920000000,   4.16000,
,,,-00.088880000000,   4.20000,
,,,-00.088840000000,   4.16000,
,,,-00.088800000000,   4.16000,
,,,-00.088760000000,   4.16000,
,,,-00.088720000000,   4.16000,
,,,-00.088680000000,   4.16000,
,,,-00.088640000000,   4.16000,
,,,-00.088600000000,   4.16000,
,,,-00.088560000000,   4.16000,
,,,-00.088520000000,   4.16000,
,,,-00.088480000000,   4.20000,
,,,-00.088440000000,   4.16000,
,,,-00.088400000000,   4.16000,
,,,-00.088360000000,   4.16000,
,,,-00.088320000000,   4.16000,
,,,-00.088280000000,   4.16000,
,,,-00.088240000000,   4.16000,
,,,-00.088200000000,   4.16000,
,,,-00.088160000000,   4.16000,
,,,-00.088120000000,   4.20000,
,,,-00.088080000000,   4.20000,
,,,-00.088040000000,   4.16000,
,,,-00.088000000000,   4.16000,
,,,-00.087960000000,   4.16000,
,,,-00.087920000000,   4.16000,
,,,-00.087880000000,   4.16000,
,,,-00.087840000000,   4.20000,
,,,-00.087800000000,   4.20000,
,,,-00.087760000000,   4.16000,
,,,-00.087720000000,   4.20000,
,,,-00.087680000000,   4.20000,
,,,-00.087640000000,   4.20000,
,,,-00.087600000000,   4.16000,
,,,-00.087560000000,   4.20000,
,,,-00.087520000000,   4.16000,
,,,-00.087480000000,   4.20000,
,,,-00.087440000000,   4.16000,
,,,-00.087400000000,   4.16000,
,,,-00.087360000000,   4.20000,
,,,-00.087320000000,   4.16000,
,,,-00.087280000000,   4.16000,
,,,-00.087240000000,   4.20000,
,,,-00.087200000000,   4.16000,
,,,-00.087160000000,   4.20000,
,,,-00.087120000000,   4.16000,
,,,-00.087080000000,   4.20000,
,,,-00.087040000000,   4.20000,
,,,-00.087000000000,   4.20000,
,,,-00.086960000000,   4.16000,
,,,-00.086920000000,   4.20000,
,,,-00.086880000000,   4.20000,
,,,-00.086840000000,   4.20000,
,,,-00.086800000000,   4.20000,
,,,-00.086760000000,   4.20000,
,,,-00.086720000000,   4.20000,
,,,-00.086680000000,   4.20000,
,,,-00.086640000000,   4.20000,
,,,-00.086600000000,   4.20000,
,,,-00.086560000000,   4.20000,
,,,-00.086520000000,   4.20000,
,,,-00.086480000000,   4.20000,
,,,-00.086440000000,   4.16000,
,,,-00.086400000000,   4.20000,
,,,-00.086360000000,   4.20000,
,,,-00.086320000000,   4.20000,
,,,-00.086280000000,   4.20000,
,,,-00.086240000000,   4.20000,
,,,-00.086200000000,   4.20000,
,,,-00.086160000000,   4.20000,
,,,-00.086120000000,   4.20000,
,,,-00.086080000000,   4.20000,
,,,-00.086040000000,   4.20000,
,,,-00.086000000000,   4.20000,
,,,-00.085960000000,   4.20000,
,,,-00.085920000000,   4.20000,
,,,-00.085880000000,   4.20000,
,,,-00.085840000000,   4.16000,
,,,-00.085800000000,   4.20000,
,,,-00.085760000000,   4.20000,
,,,-00.085720000000,   4.20000,
,,,-00.085680000000,   4.20000,
,,,-00.085640000000,   4.20000,
,,,-00.085600000000,   4.20000,
,,,-00.085560000000,   4.20000,
,,,-00.085520000000,   4.20000,
,,,-00.085480000000,   4.20000,
,,,-00.085440000000,   4.20000,
,,,-00.085400000000,   4.20000,
,,,-00.085360000000,   4.20000,
,,,-00.085320000000,   4.20000,
,,,-00.085280000000,   4.20000,
,,,-00.085240000000,   4.20000,
,,,-00.085200000000,   4.20000,
,,,-00.085160000000,   4.20000,
,,,-00.085120000000,   4.20000,
,,,-00.085080000000,   4.20000,
,,,-00.085040000000,   4.20000,
,,,-00.085000000000,   4.20000,
,,,-00.084960000000,   4.20000,
,,,-00.084920000000,   4.20000,
,,,-00.084880000000,   4.20000,
,,,-00.084840000000,   4.24000,
,,,-00.084800000000,   4.20000,
,,,-00.084760000000,   4.20000,
,,,-00.084720000000,   4.20000,
,,,-00.084680000000,   4.20000,
,,,-00.084640000000,   4.20000,
,,,-00.084600000000,   4.20000,
,,,-00.084560000000,   4.20000,
,,,-00.084520000000,   4.20000,
,,,-00.084480000000,   4.20000,
,,,-00.084440000000,   4.20000,
,,,-00.084400000000,   4.20000,
,,,-00.084360000000,   4.20000,
,,,-00.084320000000,   4.20000,
,,,-00.084280000000,   4.20000,
,,,-00.084240000000,   4.20000,
,,,-00.084200000000,   4.20000,
,,,-00.084160000000,   4.20000,
,,,-00.084120000000,   4.20000,
,,,-00.084080000000,   4.20000,
,,,-00.084040000000,   4.20000,
,,,-00.084000000000,   4.24000,
,,,-00.083960000000,   4.20000,
,,,-00.083920000000,   4.20000,
,,,-00.083880000000,   4.20000,
,,,-00.083840000000,   4.20000,
,,,-00.083800000000,   4.20000,
,,,-00.083760000000,   4.20000,
,,,-00.083720000000,   4.20000,
,,,-00.083680000000,   4.20000,
,,,-00.083640000000,   4.24000,
,,,-00.083600000000,   4.20000,
,,,-00.083560000000,   4.20000,
,,,-00.083520000000,   4.20000,
,,,-00.083480000000,   4.20000,
,,,-00.083440000000,   4.20000,
,,,-00.083400000000,   4.24000,
,,,-00.083360000000,   4.20000,
,,,-00.083320000000,   4.24000,
,,,-00.083280000000,   4.20000,
,,,-00.083240000000,   4.24000,
,,,-00.083200000000,   4.24000,
,,,-00.083160000000,   4.24000,
,,,-00.083120000000,   4.20000,
,,,-00.083080000000,   4.20000,
,,,-00.083040000000,   4.20000,
,,,-00.083000000000,   4.20000,
,,,-00.082960000000,   4.24000,
,,,-00.082920000000,   4.24000,
,,,-00.082880000000,   4.24000,
,,,-00.082840000000,   4.20000,
,,,-00.082800000000,   4.24000,
,,,-00.082760000000,   4.24000,
,,,-00.082720000000,   4.20000,
,,,-00.082680000000,   4.20000,
,,,-00.082640000000,   4.20000,
,,,-00.082600000000,   4.20000,
,,,-00.082560000000,   4.20000,
,,,-00.082520000000,   4.24000,
,,,-00.082480000000,   4.24000,
,,,-00.082440000000,   4.24000,
,,,-00.082400000000,   4.24000,
,,,-00.082360000000,   4.24000,
,,,-00.082320000000,   4.20000,
,,,-00.082280000000,   4.24000,
,,,-00.082240000000,   4.20000,
,,,-00.082200000000,   4.24000,
,,,-00.082160000000,   4.24000,
,,,-00.082120000000,   4.24000,
,,,-00.082080000000,   4.24000,
,,,-00.082040000000,   4.24000,
,,,-00.082000000000,   4.20000,
,,,-00.081960000000,   4.24000,
,,,-00.081920000000,   4.24000,
,,,-00.081880000000,   4.24000,
,,,-00.081840000000,   4.24000,
,,,-00.081800000000,   4.20000,
,,,-00.081760000000,   4.24000,
,,,-00.081720000000,   4.24000,
,,,-00.081680000000,   4.24000,
,,,-00.081640000000,   4.24000,
,,,-00.081600000000,   4.24000,
,,,-00.081560000000,   4.24000,
,,,-00.081520000000,   4.20000,
,,,-00.081480000000,   4.24000,
,,,-00.081440000000,   4.24000,
,,,-00.081400000000,   4.20000,
,,,-00.081360000000,   4.24000,
,,,-00.081320000000,   4.24000,
,,,-00.081280000000,   4.24000,
,,,-00.081240000000,   4.24000,
,,,-00.081200000000,   4.24000,
,,,-00.081160000000,   4.20000,
,,,-00.081120000000,   4.24000,
,,,-00.081080000000,   4.24000,
,,,-00.081040000000,   4.28000,
,,,-00.081000000000,   4.24000,
,,,-00.080960000000,   4.24000,
,,,-00.080920000000,   4.24000,
,,,-00.080880000000,   4.24000,
,,,-00.080840000000,   4.24000,
,,,-00.080800000000,   4.24000,
,,,-00.080760000000,   4.24000,
,,,-00.080720000000,   4.24000,
,,,-00.080680000000,   4.24000,
,,,-00.080640000000,   4.24000,
,,,-00.080600000000,   4.24000,
,,,-00.080560000000,   4.28000,
,,,-00.080520000000,   4.24000,
,,,-00.080480000000,   4.24000,
,,,-00.080440000000,   4.24000,
,,,-00.080400000000,   4.24000,
,,,-00.080360000000,   4.20000,
,,,-00.080320000000,   4.24000,
,,,-00.080280000000,   4.24000,
,,,-00.080240000000,   4.24000,
,,,-00.080200000000,   4.24000,
,,,-00.080160000000,   4.24000,
,,,-00.080120000000,   4.24000,
,,,-00.080080000000,   4.24000,
,,,-00.080040000000,   4.28000,
,,,-00.080000000000,   4.28000,
,,,-00.079960000000,   4.24000,
,,,-00.079920000000,   4.28000,
,,,-00.079880000000,   4.24000,
,,,-00.079840000000,   4.24000,
,,,-00.079800000000,   4.28000,
,,,-00.079760000000,   4.24000,
,,,-00.079720000000,   4.24000,
,,,-00.079680000000,   4.28000,
,,,-00.079640000000,   4.24000,
,,,-00.079600000000,   4.28000,
,,,-00.079560000000,   4.28000,
,,,-00.079520000000,   4.24000,
,,,-00.079480000000,   4.24000,
,,,-00.079440000000,   4.28000,
,,,-00.079400000000,   4.24000,
,,,-00.079360000000,   4.28000,
,,,-00.079320000000,   4.24000,
,,,-00.079280000000,   4.28000,
,,,-00.079240000000,   4.24000,
,,,-00.079200000000,   4.28000,
,,,-00.079160000000,   4.28000,
,,,-00.079120000000,   4.28000,
,,,-00.079080000000,   4.28000,
,,,-00.079040000000,   4.28000,
,,,-00.079000000000,   4.28000,
,,,-00.078960000000,   4.28000,
,,,-00.078920000000,   4.24000,
,,,-00.078880000000,   4.28000,
,,,-00.078840000000,   4.28000,
,,,-00.078800000000,   4.28000,
,,,-00.078760000000,   4.24000,
,,,-00.078720000000,   4.28000,
,,,-00.078680000000,   4.28000,
,,,-00.078640000000,   4.28000,
,,,-00.078600000000,   4.28000,
,,,-00.078560000000,   4.24000,
,,,-00.078520000000,   4.28000,
,,,-00.078480000000,   4.24000,
,,,-00.078440000000,   4.24000,
,,,-00.078400000000,   4.28000,
,,,-00.078360000000,   4.28000,
,,,-00.078320000000,   4.28000,
,,,-00.078280000000,   4.24000,
,,,-00.078240000000,   4.24000,
,,,-00.078200000000,   4.28000,
,,,-00.078160000000,   4.28000,
,,,-00.078120000000,   4.28000,
,,,-00.078080000000,   4.28000,
,,,-00.078040000000,   4.28000,
,,,-00.078000000000,   4.28000,
,,,-00.077960000000,   4.28000,
,,,-00.077920000000,   4.28000,
,,,-00.077880000000,   4.28000,
,,,-00.077840000000,   4.28000,
,,,-00.077800000000,   4.28000,
,,,-00.077760000000,   4.28000,
,,,-00.077720000000,   4.28000,
,,,-00.077680000000,   4.28000,
,,,-00.077640000000,   4.28000,
,,,-00.077600000000,   4.32000,
,,,-00.077560000000,   4.28000,
,,,-00.077520000000,   4.28000,
,,,-00.077480000000,   4.28000,
,,,-00.077440000000,   4.28000,
,,,-00.077400000000,   4.28000,
,,,-00.077360000000,   4.28000,
,,,-00.077320000000,   4.28000,
,,,-00.077280000000,   4.28000,
,,,-00.077240000000,   4.28000,
,,,-00.077200000000,   4.28000,
,,,-00.077160000000,   4.28000,
,,,-00.077120000000,   4.28000,
,,,-00.077080000000,   4.28000,
,,,-00.077040000000,   4.28000,
,,,-00.077000000000,   4.28000,
,,,-00.076960000000,   4.28000,
,,,-00.076920000000,   4.28000,
,,,-00.076880000000,   4.28000,
,,,-00.076840000000,   4.28000,
,,,-00.076800000000,   4.28000,
,,,-00.076760000000,   4.28000,
,,,-00.076720000000,   4.28000,
,,,-00.076680000000,   4.28000,
,,,-00.076640000000,   4.32000,
,,,-00.076600000000,   4.28000,
,,,-00.076560000000,   4.28000,
,,,-00.076520000000,   4.28000,
,,,-00.076480000000,   4.28000,
,,,-00.076440000000,   4.28000,
,,,-00.076400000000,   4.32000,
,,,-00.076360000000,   4.28000,
,,,-00.076320000000,   4.28000,
,,,-00.076280000000,   4.28000,
,,,-00.076240000000,   4.28000,
,,,-00.076200000000,   4.28000,
,,,-00.076160000000,   4.28000,
,,,-00.076120000000,   4.28000,
,,,-00.076080000000,   4.28000,
,,,-00.076040000000,   4.32000,
,,,-00.076000000000,   4.28000,
,,,-00.075960000000,   4.32000,
,,,-00.075920000000,   4.32000,
,,,-00.075880000000,   4.32000,
,,,-00.075840000000,   4.32000,
,,,-00.075800000000,   4.32000,
,,,-00.075760000000,   4.32000,
,,,-00.075720000000,   4.28000,
,,,-00.075680000000,   4.32000,
,,,-00.075640000000,   4.28000,
,,,-00.075600000000,   4.32000,
,,,-00.075560000000,   4.32000,
,,,-00.075520000000,   4.32000,
,,,-00.075480000000,   4.32000,
,,,-00.075440000000,   4.32000,
,,,-00.075400000000,   4.32000,
,,,-00.075360000000,   4.32000,
,,,-00.075320000000,   4.28000,
,,,-00.075280000000,   4.28000,
,,,-00.075240000000,   4.32000,
,,,-00.075200000000,   4.32000,
,,,-00.075160000000,   4.32000,
,,,-00.075120000000,   4.32000,
,,,-00.075080000000,   4.32000,
,,,-00.075040000000,   4.32000,
,,,-00.075000000000,   4.32000,
,,,-00.074960000000,   4.32000,
,,,-00.074920000000,   4.32000,
,,,-00.074880000000,   4.32000,
,,,-00.074840000000,   4.32000,
,,,-00.074800000000,   4.32000,
,,,-00.074760000000,   4.28000,
,,,-00.074720000000,   4.32000,
,,,-00.074680000000,   4.32000,
,,,-00.074640000000,   4.28000,
,,,-00.074600000000,   4.32000,
,,,-00.074560000000,   4.32000,
,,,-00.074520000000,   4.32000,
,,,-00.074480000000,   4.32000,
,,,-00.074440000000,   4.32000,
,,,-00.074400000000,   4.32000,
,,,-00.074360000000,   4.32000,
,,,-00.074320000000,   4.32000,
,,,-00.074280000000,   4.32000,
,,,-00.074240000000,   4.32000,
,,,-00.074200000000,   4.32000,
,,,-00.074160000000,   4.32000,
,,,-00.074120000000,   4.32000,
,,,-00.074080000000,   4.32000,
,,,-00.074040000000,   4.32000,
,,,-00.074000000000,   4.32000,
,,,-00.073960000000,   4.32000,
,,,-00.073920000000,   4.32000,
,,,-00.073880000000,   4.32000,
,,,-00.073840000000,   4.32000,
,,,-00.073800000000,   4.32000,
,,,-00.073760000000,   4.32000,
,,,-00.073720000000,   4.32000,
,,,-00.073680000000,   4.32000,
,,,-00.073640000000,   4.32000,
,,,-00.073600000000,   4.32000,
,,,-00.073560000000,   4.32000,
,,,-00.073520000000,   4.32000,
,,,-00.073480000000,   4.32000,
,,,-00.073440000000,   4.32000,
,,,-00.073400000000,   4.32000,
,,,-00.073360000000,   4.32000,
,,,-00.073320000000,   4.32000,
,,,-00.073280000000,   4.32000,
,,,-00.073240000000,   4.32000,
,,,-00.073200000000,   4.32000,
,,,-00.073160000000,   4.32000,
,,,-00.073120000000,   4.32000,
,,,-00.073080000000,   4.32000,
,,,-00.073040000000,   4.32000,
,,,-00.073000000000,   4.32000,
,,,-00.072960000000,   4.32000,
,,,-00.072920000000,   4.32000,
,,,-00.072880000000,   4.32000,
,,,-00.072840000000,   4.32000,
,,,-00.072800000000,   4.32000,
,,,-00.072760000000,   4.32000,
,,,-00.072720000000,   4.32000,
,,,-00.072680000000,   4.32000,
,,,-00.072640000000,   4.32000,
,,,-00.072600000000,   4.32000,
,,,-00.072560000000,   4.32000,
,,,-00.072520000000,   4.32000,
,,,-00.072480000000,   4.32000,
,,,-00.072440000000,   4.32000,
,,,-00.072400000000,   4.32000,
,,,-00.072360000000,   4.32000,
,,,-00.072320000000,   4.32000,
,,,-00.072280000000,   4.32000,
,,,-00.072240000000,   4.32000,
,,,-00.072200000000,   4.32000,
,,,-00.072160000000,   4.32000,
,,,-00.072120000000,   4.32000,
,,,-00.072080000000,   4.32000,
,,,-00.072040000000,   4.32000,
,,,-00.072000000000,   4.32000,
,,,-00.071960000000,   4.32000,
,,,-00.071920000000,   4.32000,
,,,-00.071880000000,   4.32000,
,,,-00.071840000000,   4.32000,
,,,-00.071800000000,   4.32000,
,,,-00.071760000000,   4.32000,
,,,-00.071720000000,   4.32000,
,,,-00.071680000000,   4.32000,
,,,-00.071640000000,   4.32000,
,,,-00.071600000000,   4.32000,
,,,-00.071560000000,   4.32000,
,,,-00.071520000000,   4.32000,
,,,-00.071480000000,   4.32000,
,,,-00.071440000000,   4.32000,
,,,-00.071400000000,   4.32000,
,,,-00.071360000000,   4.32000,
,,,-00.071320000000,   4.32000,
,,,-00.071280000000,   4.32000,
,,,-00.071240000000,   4.32000,
,,,-00.071200000000,   4.32000,
,,,-00.071160000000,   4.32000,
,,,-00.071120000000,   4.32000,
,,,-00.071080000000,   4.32000,
,,,-00.071040000000,   4.36000,
,,,-00.071000000000,   4.32000,
,,,-00.070960000000,   4.32000,
,,,-00.070920000000,   4.36000,
,,,-00.070880000000,   4.32000,
,,,-00.070840000000,   4.32000,
,,,-00.070800000000,   4.32000,
,,,-00.070760000000,   4.32000,
,,,-00.070720000000,   4.32000,
,,,-00.070680000000,   4.32000,
,,,-00.070640000000,   4.32000,
,,,-00.070600000000,   4.32000,
,,,-00.070560000000,   4.32000,
,,,-00.070520000000,   4.32000,
,,,-00.070480000000,   4.32000,
,,,-00.070440000000,   4.32000,
,,,-00.070400000000,   4.36000,
,,,-00.070360000000,   4.32000,
,,,-00.070320000000,   4.32000,
,,,-00.070280000000,   4.32000,
,,,-00.070240000000,   4.32000,
,,,-00.070200000000,   4.36000,
,,,-00.070160000000,   4.32000,
,,,-00.070120000000,   4.36000,
,,,-00.070080000000,   4.32000,
,,,-00.070040000000,   4.32000,
,,,-00.070000000000,   4.32000,
,,,-00.069960000000,   4.32000,
,,,-00.069920000000,   4.32000,
,,,-00.069880000000,   4.36000,
,,,-00.069840000000,   4.36000,
,,,-00.069800000000,   4.36000,
,,,-00.069760000000,   4.32000,
,,,-00.069720000000,   4.32000,
,,,-00.069680000000,   4.32000,
,,,-00.069640000000,   4.36000,
,,,-00.069600000000,   4.36000,
,,,-00.069560000000,   4.36000,
,,,-00.069520000000,   4.32000,
,,,-00.069480000000,   4.36000,
,,,-00.069440000000,   4.36000,
,,,-00.069400000000,   4.36000,
,,,-00.069360000000,   4.36000,
,,,-00.069320000000,   4.36000,
,,,-00.069280000000,   4.32000,
,,,-00.069240000000,   4.32000,
,,,-00.069200000000,   4.32000,
,,,-00.069160000000,   4.36000,
,,,-00.069120000000,   4.36000,
,,,-00.069080000000,   4.36000,
,,,-00.069040000000,   4.36000,
,,,-00.069000000000,   4.36000,
,,,-00.068960000000,   4.36000,
,,,-00.068920000000,   4.36000,
,,,-00.068880000000,   4.36000,
,,,-00.068840000000,   4.32000,
,,,-00.068800000000,   4.36000,
,,,-00.068760000000,   4.36000,
,,,-00.068720000000,   4.32000,
,,,-00.068680000000,   4.36000,
,,,-00.068640000000,   4.36000,
,,,-00.068600000000,   4.36000,
,,,-00.068560000000,   4.36000,
,,,-00.068520000000,   4.36000,
,,,-00.068480000000,   4.36000,
,,,-00.068440000000,   4.36000,
,,,-00.068400000000,   4.36000,
,,,-00.068360000000,   4.36000,
,,,-00.068320000000,   4.36000,
,,,-00.068280000000,   4.36000,
,,,-00.068240000000,   4.36000,
,,,-00.068200000000,   4.36000,
,,,-00.068160000000,   4.36000,
,,,-00.068120000000,   4.36000,
,,,-00.068080000000,   4.36000,
,,,-00.068040000000,   4.36000,
,,,-00.068000000000,   4.36000,
,,,-00.067960000000,   4.36000,
,,,-00.067920000000,   4.36000,
,,,-00.067880000000,   4.36000,
,,,-00.067840000000,   4.36000,
,,,-00.067800000000,   4.36000,
,,,-00.067760000000,   4.36000,
,,,-00.067720000000,   4.36000,
,,,-00.067680000000,   4.36000,
,,,-00.067640000000,   4.36000,
,,,-00.067600000000,   4.36000,
,,,-00.067560000000,   4.36000,
,,,-00.067520000000,   4.36000,
,,,-00.067480000000,   4.36000,
,,,-00.067440000000,   4.36000,
,,,-00.067400000000,   4.36000,
,,,-00.067360000000,   4.36000,
,,,-00.067320000000,   4.36000,
,,,-00.067280000000,   4.36000,
,,,-00.067240000000,   4.36000,
,,,-00.067200000000,   4.36000,
,,,-00.067160000000,   4.36000,
,,,-00.067120000000,   4.36000,
,,,-00.067080000000,   4.40000,
,,,-00.067040000000,   4.36000,
,,,-00.067000000000,   4.36000,
,,,-00.066960000000,   4.40000,
,,,-00.066920000000,   4.36000,
,,,-00.066880000000,   4.40000,
,,,-00.066840000000,   4.36000,
,,,-00.066800000000,   4.40000,
,,,-00.066760000000,   4.36000,
,,,-00.066720000000,   4.36000,
,,,-00.066680000000,   4.40000,
,,,-00.066640000000,   4.40000,
,,,-00.066600000000,   4.36000,
,,,-00.066560000000,   4.36000,
,,,-00.066520000000,   4.40000,
,,,-00.066480000000,   4.36000,
,,,-00.066440000000,   4.36000,
,,,-00.066400000000,   4.40000,
,,,-00.066360000000,   4.36000,
,,,-00.066320000000,   4.40000,
,,,-00.066280000000,   4.40000,
,,,-00.066240000000,   4.40000,
,,,-00.066200000000,   4.40000,
,,,-00.066160000000,   4.40000,
,,,-00.066120000000,   4.40000,
,,,-00.066080000000,   4.40000,
,,,-00.066040000000,   4.40000,
,,,-00.066000000000,   4.40000,
,,,-00.065960000000,   4.36000,
,,,-00.065920000000,   4.36000,
,,,-00.065880000000,   4.40000,
,,,-00.065840000000,   4.40000,
,,,-00.065800000000,   4.36000,
,,,-00.065760000000,   4.36000,
,,,-00.065720000000,   4.36000,
,,,-00.065680000000,   4.36000,
,,,-00.065640000000,   4.40000,
,,,-00.065600000000,   4.36000,
,,,-00.065560000000,   4.40000,
,,,-00.065520000000,   4.40000,
,,,-00.065480000000,   4.36000,
