data/ALL0014/F0014CH1.CSV

Record Length,2.500000e+03,,   0.914000000000,   0.00000,
Sample Interval,2.000000e-05,,   0.914020000000,   0.00000,
Trigger Point,-4.570000000000e+04,,   0.914040000000,   0.00000,
,,,   0.914060000000,   0.00000,
,,,   0.914080000000,   0.00400,
,,,   0.914100000000,   0.00000,
Source,CH1,,   0.914120000000,   0.00000,
Vertical Units,V,,   0.914140000000,   0.00000,
Vertical Scale,1.000000e-01,,   0.914160000000,  -0.00400,
Vertical Offset,-5.200000e-02,,   0.914180000000,   0.00000,
Horizontal Units,s,,   0.914200000000,   0.00000,
Horizontal Scale,5.000000e-03,,   0.914220000000,   0.00400,
Pt Fmt,Y,,   0.914240000000,   0.00400,
Yzero,0.000000e+00,,   0.914260000000,   0.00400,
Probe Atten,1.000000e+00,,   0.914280000000,   0.00000,
Model Number,TDS2012C,,   0.914300000000,   0.00000,
Serial Number,C010188,,   0.914320000000,   0.00400,
Firmware Version,FV:v24.08,,   0.914340000000,   0.00000,
,,,0.914360000000,   0.00000,
,,,0.914380000000,   0.00400,
,,,0.914400000000,   0.00000,
,,,0.914420000000,   0.00400,
,,,0.914440000000,   0.00000,
,,,0.914460000000,   0.00000,
,,,0.914480000000,   0.00000,
,,,0.914500000000,   0.00000,
,,,0.914520000000,   0.00400,
,,,0.914540000000,   0.00000,
,,,0.914560000000,   0.00000,
,,,0.914580000000,   0.00000,
,,,0.914600000000,   0.00000,
,,,0.914620000000,   0.00000,
,,,0.914640000000,   0.00000,
,,,0.914660000000,   0.00000,
,,,0.914680000000,   0.00400,
,,,0.914700000000,   0.00000,
,,,0.914720000000,   0.00000,
,,,0.914740000000,   0.00000,
,,,0.914760000000,   0.00000,
,,,0.914780000000,   0.00000,
,,,0.914800000000,   0.00000,
,,,0.914820000000,   0.00000,
,,,0.914840000000,   0.00000,
,,,0.914860000000,   0.00000,
,,,0.914880000000,   0.00000,
,,,0.914900000000,   0.00000,
,,,0.914920000000,   0.00000,
,,,0.914940000000,   0.00000,
,,,0.914960000000,   0.00000,
,,,0.914980000000,   0.00000,
,,,0.915000000000,   0.00000,
,,,0.915020000000,   0.00000,
,,,0.915040000000,   0.00000,
,,,0.915060000000,   0.00000,
,,,0.915080000000,   0.00000,
,,,0.915100000000,   0.00000,
,,,0.915120000000,   0.00000,
,,,0.915140000000,   0.00000,
,,,0.915160000000,  -0.00400,
,,,0.915180000000,  -0.00400,
,,,0.915200000000,   0.00000,
,,,0.915220000000,   0.00000,
,,,0.915240000000,   0.00000,
,,,0.915260000000,   0.00000,
,,,0.915280000000,   0.00000,
,,,0.915300000000,  -0.00400,
,,,0.915320000000,   0.00000,
,,,0.915340000000,   0.00000,
,,,0.915360000000,   0.00000,
,,,0.915380000000,  -0.00400,
,,,0.915400000000,  -0.00400,
,,,0.915420000000,   0.00000,
,,,0.915440000000,  -0.00400,
,,,0.915460000000,   0.00000,
,,,0.915480000000,   0.00000,
,,,0.915500000000,   0.00000,
,,,0.915520000000,   0.00000,
,,,0.915540000000,  -0.00400,
,,,0.915560000000,   0.00000,
,,,0.915580000000,   0.00000,
,,,0.915600000000,  -0.00400,
,,,0.915620000000,  -0.00400,
,,,0.915640000000,   0.00000,
,,,0.915660000000,   0.00000,
,,,0.915680000000,  -0.00400,
,,,0.915700000000,  -0.00400,
,,,0.915720000000,   0.00000,
,,,0.915740000000,  -0.00400,
,,,0.915760000000,   0.00000,
,,,0.915780000000,   0.00000,
,,,0.915800000000,  -0.00400,
,,,0.915820000000,  -0.00400,
,,,0.915840000000,  -0.00400,
,,,0.915860000000,   0.00000,
,,,0.915880000000,  -0.00400,
,,,0.915900000000,  -0.00400,
,,,0.915920000000,  -0.00400,
,,,0.915940000000,  -0.00400,
,,,0.915960000000,  -0.00400,
,,,0.915980000000,  -0.00400,
,,,0.916000000000,  -0.00400,
,,,0.916020000000,   0.00000,
,,,0.916040000000,  -0.00400,
,,,0.916060000000,  -0.00400,
,,,0.916080000000,  -0.00400,
,,,0.916100000000,  -0.00400,
,,,0.916120000000,  -0.00400,
,,,0.916140000000,  -0.00400,
,,,0.916160000000,  -0.00400,
,,,0.916180000000,  -0.00400,
,,,0.916200000000,  -0.00400,
,,,0.916220000000,  -0.00400,
,,,0.916240000000,  -0.00400,
,,,0.916260000000,  -0.00400,
,,,0.916280000000,  -0.00400,
,,,0.916300000000,  -0.00400,
,,,0.916320000000,  -0.00400,
,,,0.916340000000,  -0.00400,
,,,0.916360000000,  -0.00400,
,,,0.916380000000,  -0.00400,
,,,0.916400000000,  -0.00400,
,,,0.916420000000,  -0.00400,
,,,0.916440000000,  -0.00400,
,,,0.916460000000,   0.00000,
,,,0.916480000000,  -0.00400,
,,,0.916500000000,  -0.00400,
,,,0.916520000000,  -0.00400,
,,,0.916540000000,   0.00000,
,,,0.916560000000,   0.00000,
,,,0.916580000000,   0.00000,
,,,0.916600000000,  -0.00400,
,,,0.916620000000,  -0.00400,
,,,0.916640000000,  -0.00400,
,,,0.916660000000,  -0.00400,
,,,0.916680000000,  -0.00400,
,,,0.916700000000,  -0.00400,
,,,0.916720000000,  -0.00400,
,,,0.916740000000,  -0.00400,
,,,0.916760000000,  -0.00400,
,,,0.916780000000,  -0.00400,
,,,0.916800000000,  -0.00400,
,,,0.916820000000,  -0.00400,
,,,0.916840000000,  -0.00400,
,,,0.916860000000,  -0.00400,
,,,0.916880000000,  -0.00400,
,,,0.916900000000,  -0.00400,
,,,0.916920000000,  -0.00400,
,,,0.916940000000,  -0.00400,
,,,0.916960000000,  -0.00400,
,,,0.916980000000,  -0.00400,
,,,0.917000000000,  -0.00400,
,,,0.917020000000,  -0.00400,
,,,0.917040000000,  -0.00400,
,,,0.917060000000,  -0.00400,
,,,0.917080000000,  -0.00400,
,,,0.917100000000,  -0.00400,
,,,0.917120000000,  -0.00400,
,,,0.917140000000,  -0.00400,
,,,0.917160000000,  -0.00400,
,,,0.917180000000,  -0.00400,
,,,0.917200000000,  -0.00400,
,,,0.917220000000,  -0.00400,
,,,0.917240000000,  -0.00400,
,,,0.917260000000,  -0.00400,
,,,0.917280000000,  -0.00400,
,,,0.917300000000,  -0.00400,
,,,0.917320000000,  -0.00400,
,,,0.917340000000,  -0.00400,
,,,0.917360000000,  -0.00400,
,,,0.917380000000,  -0.00400,
,,,0.917400000000,  -0.00400,
,,,0.917420000000,  -0.00400,
,,,0.917440000000,  -0.00800,
,,,0.917460000000,  -0.00800,
,,,0.917480000000,  -0.00400,
,,,0.917500000000,  -0.00400,
,,,0.917520000000,  -0.00400,
,,,0.917540000000,  -0.00400,
,,,0.917560000000,  -0.00400,
,,,0.917580000000,  -0.00400,
,,,0.917600000000,  -0.00400,
,,,0.917620000000,  -0.00400,
,,,0.917640000000,  -0.00800,
,,,0.917660000000,  -0.00400,
,,,0.917680000000,  -0.00800,
,,,0.917700000000,  -0.00400,
,,,0.917720000000,  -0.00400,
,,,0.917740000000,  -0.00400,
,,,0.917760000000,  -0.00400,
,,,0.917780000000,  -0.00400,
,,,0.917800000000,  -0.00400,
,,,0.917820000000,  -0.00400,
,,,0.917840000000,  -0.00800,
,,,0.917860000000,  -0.00400,
,,,0.917880000000,  -0.00800,
,,,0.917900000000,  -0.00400,
,,,0.917920000000,  -0.00400,
,,,0.917940000000,  -0.00400,
,,,0.917960000000,  -0.00400,
,,,0.917980000000,  -0.00400,
,,,0.918000000000,  -0.00800,
,,,0.918020000000,  -0.00400,
,,,0.918040000000,  -0.00400,
,,,0.918060000000,  -0.00400,
,,,0.918080000000,  -0.00800,
,,,0.918100000000,  -0.00400,
,,,0.918120000000,  -0.00800,
,,,0.918140000000,  -0.00800,
,,,0.918160000000,  -0.00400,
,,,0.918180000000,  -0.00800,
,,,0.918200000000,  -0.00400,
,,,0.918220000000,  -0.00800,
,,,0.918240000000,  -0.00400,
,,,0.918260000000,  -0.00800,
,,,0.918280000000,  -0.00800,
,,,0.918300000000,  -0.00800,
,,,0.918320000000,  -0.00400,
,,,0.918340000000,  -0.00800,
,,,0.918360000000,  -0.00800,
,,,0.918380000000,  -0.00800,
,,,0.918400000000,  -0.00400,
,,,0.918420000000,  -0.00800,
,,,0.918440000000,  -0.00400,
,,,0.918460000000,  -0.00800,
,,,0.918480000000,  -0.00800,
,,,0.918500000000,  -0.00800,
,,,0.918520000000,  -0.00400,
,,,0.918540000000,  -0.00800,
,,,0.918560000000,  -0.00800,
,,,0.918580000000,  -0.00400,
,,,0.918600000000,  -0.00800,
,,,0.918620000000,  -0.00800,
,,,0.918640000000,  -0.00400,
,,,0.918660000000,  -0.00800,
,,,0.918680000000,  -0.00400,
,,,0.918700000000,  -0.00800,
,,,0.918720000000,  -0.00800,
,,,0.918740000000,  -0.00800,
,,,0.918760000000,  -0.00800,
,,,0.918780000000,  -0.00400,
,,,0.918800000000,  -0.00800,
,,,0.918820000000,  -0.01200,
,,,0.918840000000,  -0.00800,
,,,0.918860000000,  -0.01200,
,,,0.918880000000,  -0.00800,
,,,0.918900000000,  -0.01200,
,,,0.918920000000,  -0.00800,
,,,0.918940000000,  -0.00800,
,,,0.918960000000,  -0.00800,
,,,0.918980000000,  -0.00800,
,,,0.919000000000,  -0.00400,
,,,0.919020000000,  -0.00800,
,,,0.919040000000,  -0.00800,
,,,0.919060000000,  -0.00800,
,,,0.919080000000,  -0.00800,
,,,0.919100000000,  -0.00800,
,,,0.919120000000,  -0.00800,
,,,0.919140000000,  -0.00800,
,,,0.919160000000,  -0.00800,
,,,0.919180000000,  -0.00800,
,,,0.919200000000,  -0.01200,
,,,0.919220000000,  -0.01200,
,,,0.919240000000,  -0.00800,
,,,0.919260000000,  -0.01200,
,,,0.919280000000,  -0.00800,
,,,0.919300000000,  -0.00800,
,,,0.919320000000,  -0.00800,
,,,0.919340000000,  -0.01200,
,,,0.919360000000,  -0.00800,
,,,0.919380000000,  -0.01200,
,,,0.919400000000,  -0.01200,
,,,0.919420000000,  -0.00800,
,,,0.919440000000,  -0.00800,
,,,0.919460000000,  -0.00800,
,,,0.919480000000,  -0.01200,
,,,0.919500000000,  -0.01200,
,,,0.919520000000,  -0.00800,
,,,0.919540000000,  -0.01200,
,,,0.919560000000,  -0.00800,
,,,0.919580000000,  -0.00800,
,,,0.919600000000,  -0.00800,
,,,0.919620000000,  -0.00800,
,,,0.919640000000,  -0.00800,
,,,0.919660000000,  -0.01600,
,,,0.919680000000,  -0.00800,
,,,0.919700000000,  -0.01200,
,,,0.919720000000,  -0.01200,
,,,0.919740000000,  -0.01200,
,,,0.919760000000,  -0.00800,
,,,0.919780000000,  -0.00800,
,,,0.919800000000,  -0.01200,
,,,0.919820000000,  -0.00800,
,,,0.919840000000,  -0.01200,
,,,0.919860000000,  -0.00800,
,,,0.919880000000,  -0.01200,
,,,0.919900000000,  -0.01200,
,,,0.919920000000,  -0.01200,
,,,0.919940000000,  -0.00800,
,,,0.919960000000,  -0.01200,
,,,0.919980000000,  -0.00800,
,,,0.920000000000,  -0.01200,
,,,0.920020000000,  -0.01200,
,,,0.920040000000,  -0.01200,
,,,0.920060000000,  -0.01200,
,,,0.920080000000,  -0.01200,
,,,0.920100000000,  -0.01200,
,,,0.920120000000,  -0.01200,
,,,0.920140000000,  -0.01200,
,,,0.920160000000,  -0.01200,
,,,0.920180000000,  -0.01200,
,,,0.920200000000,  -0.01600,
,,,0.920220000000,  -0.01600,
,,,0.920240000000,  -0.01200,
,,,0.920260000000,  -0.01200,
,,,0.920280000000,  -0.01200,
,,,0.920300000000,  -0.01200,
,,,0.920320000000,  -0.01200,
,,,0.920340000000,  -0.01200,
,,,0.920360000000,  -0.01200,
,,,0.920380000000,  -0.01200,
,,,0.920400000000,  -0.01200,
,,,0.920420000000,  -0.01200,
,,,0.920440000000,  -0.01200,
,,,0.920460000000,  -0.01600,
,,,0.920480000000,  -0.01600,
,,,0.920500000000,  -0.01600,
,,,0.920520000000,  -0.01200,
,,,0.920540000000,  -0.01600,
,,,0.920560000000,  -0.01200,
,,,0.920580000000,  -0.01200,
,,,0.920600000000,  -0.01600,
,,,0.920620000000,  -0.01200,
,,,0.920640000000,  -0.01600,
,,,0.920660000000,  -0.01200,
,,,0.920680000000,  -0.01600,
,,,0.920700000000,  -0.01200,
,,,0.920720000000,  -0.01600,
,,,0.920740000000,  -0.01200,
,,,0.920760000000,  -0.01200,
,,,0.920780000000,  -0.01600,
,,,0.920800000000,  -0.01200,
,,,0.920820000000,  -0.01200,
,,,0.920840000000,  -0.01200,
,,,0.920860000000,  -0.01200,
,,,0.920880000000,  -0.01600,
,,,0.920900000000,  -0.01600,
,,,0.920920000000,  -0.01200,
,,,0.920940000000,  -0.01600,
,,,0.920960000000,  -0.01200,
,,,0.920980000000,  -0.01600,
,,,0.921000000000,  -0.01600,
,,,0.921020000000,  -0.01600,
,,,0.921040000000,  -0.01200,
,,,0.921060000000,  -0.01200,
,,,0.921080000000,  -0.01200,
,,,0.921100000000,  -0.01600,
,,,0.921120000000,  -0.01200,
,,,0.921140000000,  -0.01600,
,,,0.921160000000,  -0.01600,
,,,0.921180000000,  -0.01600,
,,,0.921200000000,  -0.01600,
,,,0.921220000000,  -0.01600,
,,,0.921240000000,  -0.01600,
,,,0.921260000000,  -0.01600,
,,,0.921280000000,  -0.01600,
,,,0.921300000000,  -0.01600,
,,,0.921320000000,  -0.01600,
,,,0.921340000000,  -0.01200,
,,,0.921360000000,  -0.01600,
,,,0.921380000000,  -0.01600,
,,,0.921400000000,  -0.01600,
,,,0.921420000000,  -0.01600,
,,,0.921440000000,  -0.01600,
,,,0.921460000000,  -0.01600,
,,,0.921480000000,  -0.01600,
,,,0.921500000000,  -0.01600,
,,,0.921520000000,  -0.01600,
,,,0.921540000000,  -0.01600,
,,,0.921560000000,  -0.01600,
,,,0.921580000000,  -0.01600,
,,,0.921600000000,  -0.01600,
,,,0.921620000000,  -0.01600,
,,,0.921640000000,  -0.01600,
,,,0.921660000000,  -0.01600,
,,,0.921680000000,  -0.01200,
,,,0.921700000000,  -0.01600,
,,,0.921720000000,  -0.01600,
,,,0.921740000000,  -0.01600,
,,,0.921760000000,  -0.01600,
,,,0.921780000000,  -0.01600,
,,,0.921800000000,  -0.01600,
,,,0.921820000000,  -0.01600,
,,,0.921840000000,  -0.01600,
,,,0.921860000000,  -0.01600,
,,,0.921880000000,  -0.01600,
,,,0.921900000000,  -0.01600,
,,,0.921920000000,  -0.01600,
,,,0.921940000000,  -0.01600,
,,,0.921960000000,  -0.01600,
,,,0.921980000000,  -0.01600,
,,,0.922000000000,  -0.01600,
,,,0.922020000000,  -0.01600,
,,,0.922040000000,  -0.01600,
,,,0.922060000000,  -0.02000,
,,,0.922080000000,  -0.01600,
,,,0.922100000000,  -0.02000,
,,,0.922120000000,  -0.01600,
,,,0.922140000000,  -0.02000,
,,,0.922160000000,  -0.01600,
,,,0.922180000000,  -0.01600,
,,,0.922200000000,  -0.01600,
,,,0.922220000000,  -0.01600,
,,,0.922240000000,  -0.01600,
,,,0.922260000000,  -0.01600,
,,,0.922280000000,  -0.01600,
,,,0.922300000000,  -0.01600,
,,,0.922320000000,  -0.01600,
,,,0.922340000000,  -0.01600,
,,,0.922360000000,  -0.01600,
,,,0.922380000000,  -0.01600,
,,,0.922400000000,  -0.01600,
,,,0.922420000000,  -0.01600,
,,,0.922440000000,  -0.01600,
,,,0.922460000000,  -0.01600,
,,,0.922480000000,  -0.02000,
,,,0.922500000000,  -0.02000,
,,,0.922520000000,  -0.02000,
,,,0.922540000000,  -0.01600,
,,,0.922560000000,  -0.01600,
,,,0.922580000000,  -0.02000,
,,,0.922600000000,  -0.01600,
,,,0.922620000000,  -0.02000,
,,,0.922640000000,  -0.01600,
,,,0.922660000000,  -0.02000,
,,,0.922680000000,  -0.02000,
,,,0.922700000000,  -0.02000,
,,,0.922720000000,  -0.02000,
,,,0.922740000000,  -0.01600,
,,,0.922760000000,  -0.02000,
,,,0.922780000000,  -0.02000,
,,,0.922800000000,  -0.01600,
,,,0.922820000000,  -0.02000,
,,,0.922840000000,  -0.02000,
,,,0.922860000000,  -0.02000,
,,,0.922880000000,  -0.02000,
,,,0.922900000000,  -0.02400,
,,,0.922920000000,  -0.01600,
,,,0.922940000000,  -0.02000,
,,,0.922960000000,  -0.02000,
,,,0.922980000000,  -0.02000,
,,,0.923000000000,  -0.01600,
,,,0.923020000000,  -0.01600,
,,,0.923040000000,  -0.02000,
,,,0.923060000000,  -0.02000,
,,,0.923080000000,  -0.02000,
,,,0.923100000000,  -0.02000,
,,,0.923120000000,  -0.02000,
,,,0.923140000000,  -0.02000,
,,,0.923160000000,  -0.02000,
,,,0.923180000000,  -0.02000,
,,,0.923200000000,  -0.02000,
,,,0.923220000000,  -0.02000,
,,,0.923240000000,  -0.02000,
,,,0.923260000000,  -0.02000,
,,,0.923280000000,  -0.02000,
,,,0.923300000000,  -0.02000,
,,,0.923320000000,  -0.02400,
,,,0.923340000000,  -0.02000,
,,,0.923360000000,  -0.02400,
,,,0.923380000000,  -0.02000,
,,,0.923400000000,  -0.02000,
,,,0.923420000000,  -0.02400,
,,,0.923440000000,  -0.02000,
,,,0.923460000000,  -0.02400,
,,,0.923480000000,  -0.02000,
,,,0.923500000000,  -0.02400,
,,,0.923520000000,  -0.02000,
,,,0.923540000000,  -0.02000,
,,,0.923560000000,  -0.02400,
,,,0.923580000000,  -0.02000,
,,,0.923600000000,  -0.02000,
,,,0.923620000000,  -0.02000,
,,,0.923640000000,  -0.02000,
,,,0.923660000000,  -0.02000,
,,,0.923680000000,  -0.02000,
,,,0.923700000000,  -0.02000,
,,,0.923720000000,  -0.02000,
,,,0.923740000000,  -0.02000,
,,,0.923760000000,  -0.02400,
,,,0.923780000000,  -0.02000,
,,,0.923800000000,  -0.02400,
,,,0.923820000000,  -0.02000,
,,,0.923840000000,  -0.02400,
,,,0.923860000000,  -0.02000,
,,,0.923880000000,  -0.02000,
,,,0.923900000000,  -0.02400,
,,,0.923920000000,  -0.02000,
,,,0.923940000000,  -0.02400,
,,,0.923960000000,  -0.02400,
,,,0.923980000000,  -0.02400,
,,,0.924000000000,  -0.02000,
,,,0.924020000000,  -0.02000,
,,,0.924040000000,  -0.02400,
,,,0.924060000000,  -0.02400,
,,,0.924080000000,  -0.02400,
,,,0.924100000000,  -0.02400,
,,,0.924120000000,  -0.02400,
,,,0.924140000000,  -0.02400,
,,,0.924160000000,  -0.02400,
,,,0.924180000000,  -0.02400,
,,,0.924200000000,  -0.02400,
,,,0.924220000000,  -0.02400,
,,,0.924240000000,  -0.02400,
,,,0.924260000000,  -0.02400,
,,,0.924280000000,  -0.02400,
,,,0.924300000000,  -0.02400,
,,,0.924320000000,  -0.02400,
,,,0.924340000000,  -0.02400,
,,,0.924360000000,  -0.02400,
,,,0.924380000000,  -0.02800,
,,,0.924400000000,  -0.02800,
,,,0.924420000000,  -0.02400,
,,,0.924440000000,  -0.02400,
,,,0.924460000000,  -0.02800,
,,,0.924480000000,  -0.02400,
,,,0.924500000000,  -0.02400,
,,,0.924520000000,  -0.02800,
,,,0.924540000000,  -0.02400,
,,,0.924560000000,  -0.02400,
,,,0.924580000000,  -0.02800,
,,,0.924600000000,  -0.02400,
,,,0.924620000000,  -0.02400,
,,,0.924640000000,  -0.02800,
,,,0.924660000000,  -0.02800,
,,,0.924680000000,  -0.02400,
,,,0.924700000000,  -0.02400,
,,,0.924720000000,  -0.02400,
,,,0.924740000000,  -0.02400,
,,,0.924760000000,  -0.02800,
,,,0.924780000000,  -0.02800,
,,,0.924800000000,  -0.02800,
,,,0.924820000000,  -0.02400,
,,,0.924840000000,  -0.02800,
,,,0.924860000000,  -0.02400,
,,,0.924880000000,  -0.02400,
,,,0.924900000000,  -0.02800,
,,,0.924920000000,  -0.02800,
,,,0.924940000000,  -0.02800,
,,,0.924960000000,  -0.02800,
,,,0.924980000000,  -0.02800,
,,,0.925000000000,  -0.02800,
,,,0.925020000000,  -0.02400,
,,,0.925040000000,  -0.02800,
,,,0.925060000000,  -0.02400,
,,,0.925080000000,  -0.02800,
,,,0.925100000000,  -0.02800,
,,,0.925120000000,  -0.02800,
,,,0.925140000000,  -0.02800,
,,,0.925160000000,  -0.02800,
,,,0.925180000000,  -0.02800,
,,,0.925200000000,  -0.02400,
,,,0.925220000000,  -0.02800,
,,,0.925240000000,  -0.02800,
,,,0.925260000000,  -0.02800,
,,,0.925280000000,  -0.02800,
,,,0.925300000000,  -0.02800,
,,,0.925320000000,  -0.02400,
,,,0.925340000000,  -0.02800,
,,,0.925360000000,  -0.02800,
,,,0.925380000000,  -0.02800,
,,,0.925400000000,  -0.02800,
,,,0.925420000000,  -0.02800,
,,,0.925440000000,  -0.02800,
,,,0.925460000000,  -0.02800,
,,,0.925480000000,  -0.02800,
,,,0.925500000000,  -0.02800,
,,,0.925520000000,  -0.02800,
,,,0.925540000000,  -0.02800,
,,,0.925560000000,  -0.02800,
,,,0.925580000000,  -0.02800,
,,,0.925600000000,  -0.02800,
,,,0.925620000000,  -0.03200,
,,,0.925640000000,  -0.02800,
,,,0.925660000000,  -0.02800,
,,,0.925680000000,  -0.02800,
,,,0.925700000000,  -0.02800,
,,,0.925720000000,  -0.02800,
,,,0.925740000000,  -0.03200,
,,,0.925760000000,  -0.02800,
,,,0.925780000000,  -0.02800,
,,,0.925800000000,  -0.03200,
,,,0.925820000000,  -0.02800,
,,,0.925840000000,  -0.03200,
,,,0.925860000000,  -0.02800,
,,,0.925880000000,  -0.03200,
,,,0.925900000000,  -0.02800,
,,,0.925920000000,  -0.03200,
,,,0.925940000000,  -0.02800,
,,,0.925960000000,  -0.03200,
,,,0.925980000000,  -0.03200,
,,,0.926000000000,  -0.02800,
,,,0.926020000000,  -0.03200,
,,,0.926040000000,  -0.03200,
,,,0.926060000000,  -0.02800,
,,,0.926080000000,  -0.03200,
,,,0.926100000000,  -0.02800,
,,,0.926120000000,  -0.02800,
,,,0.926140000000,  -0.02800,
,,,0.926160000000,  -0.03200,
,,,0.926180000000,  -0.02800,
,,,0.926200000000,  -0.02800,
,,,0.926220000000,  -0.03200,
,,,0.926240000000,  -0.02800,
,,,0.926260000000,  -0.02800,
,,,0.926280000000,  -0.02800,
,,,0.926300000000,  -0.03200,
,,,0.926320000000,  -0.03200,
,,,0.926340000000,  -0.03200,
,,,0.926360000000,  -0.03200,
,,,0.926380000000,  -0.03200,
,,,0.926400000000,  -0.02800,
,,,0.926420000000,  -0.02800,
,,,0.926440000000,  -0.03200,
,,,0.926460000000,  -0.03200,
,,,0.926480000000,  -0.03200,
,,,0.926500000000,  -0.02800,
,,,0.926520000000,  -0.03200,
,,,0.926540000000,  -0.03200,
,,,0.926560000000,  -0.03200,
,,,0.926580000000,  -0.03200,
,,,0.926600000000,  -0.03200,
,,,0.926620000000,  -0.03200,
,,,0.926640000000,  -0.03600,
,,,0.926660000000,  -0.03200,
,,,0.926680000000,  -0.03600,
,,,0.926700000000,  -0.03200,
,,,0.926720000000,  -0.03200,
,,,0.926740000000,  -0.03600,
,,,0.926760000000,  -0.03200,
,,,0.926780000000,  -0.03600,
,,,0.926800000000,  -0.03200,
,,,0.926820000000,  -0.03200,
,,,0.926840000000,  -0.03600,
,,,0.926860000000,  -0.03200,
,,,0.926880000000,  -0.03600,
,,,0.926900000000,  -0.03600,
,,,0.926920000000,  -0.03200,
,,,0.926940000000,  -0.03600,
,,,0.926960000000,  -0.03200,
,,,0.926980000000,  -0.03600,
,,,0.927000000000,  -0.03600,
,,,0.927020000000,  -0.03200,
,,,0.927040000000,  -0.03600,
,,,0.927060000000,  -0.03600,
